{
    "name": "Cooperative",
    "fields": [
        {
            "fieldName": "cooperativeId",
            "fieldType": "Long",
            "fieldValidateRules": [
                "required"
            ]
        },
        {
            "fieldName": "name",
            "fieldType": "String"
        },
        {
            "fieldName": "area",
            "fieldType": "String"
        }
    ],
    "relationships": [
        {
            "relationshipType": "many-to-many",
            "otherEntityName": "restaurant",
            "otherEntityRelationshipName": "cooperative",
            "relationshipName": "restaurant",
            "otherEntityField": "id",
            "ownerSide": true
        }
    ],
    "changelogDate": "20200423093400",
    "javadoc": "The Cooperative entity.",
    "entityTableName": "cooperative",
    "dto": "no",
    "pagination": "no",
    "service": "no",
    "jpaMetamodelFiltering": false,
    "fluentMethods": true,
    "readOnly": false,
    "embedded": false,
    "clientRootFolder": "",
    "applications": "*"
}